{
  "db": {
    "url": "mongodb://localhost:27017/teme"
  },
  "listen": {
    "port": 80,
    "ip": "0.0.0.0"
  },
  "ldap": {
    "address": "nni-vsrv-dcb.neutrona.com",
    "domain": "neutrona",
    "query": "DC=neutrona,DC=com"
  },
  "sessions": {
    "dbUrl": "mongodb://localhost:27017/teme",
    "collection": "sessions",
    "secret": "supercalifragilisticexpialidocious",
    "age": 604800000
  }
}
